{
  "": {
    "language": "eo",
    "plural-forms": "nplurals=2; plural=(n!=1);"
  },
  "Welcome to Meta-Press.es": "",
  " Welcome": "Bonvenon",
  "To open the search engine, click the [": "Por malfermi la serĉilon, alklalku la",
  "] icon in the Firefox bar :": "ikono en la Firefox-stango ",
  "Documentation": "Dokumentaro",
  "Click ": "Alklaku",
  "here": "ĉi tie",
  " to read the documentation.": "por legi la dokumentaron",
  "Permissions": "Permesoj",
  "Here is what Meta-Press.es is doing with the permissions it asks for :": "Jen kion faras Meta-Press.es kun la permesoj, kiujn ĝi petas ",
  " the ": "la",
  "host permission": "gastiga permeso ",
  " is needed to read results from the queried source, only those sources are targeted, and permissions can be dropped between searches": "necesas por legi rezultojn de la pridemandita fonto, nur tiuj fontoj estas celitaj, kaj permesoj povas esti faligitaj inter serĉoj ",
  "notification": "sciigo",
  " permission is only used to signal the end of a long search or new results in a scheduled search": "permeso estas uzata nur por signali la finon de longa serĉo aŭ novaj rezultoj en planita serĉo ",
  "alarm": "alarmo",
  " permission is used to schedule searches": "permeso estas uzata por plani serĉojn",
  "storage": "memoro",
  " permission is used to remember settings and custom sources": "permeso estas uzata por memori agordojn kaj kutimajn fontojn ",
  "Also, this addon periodically (usually once a year) opens the \"journal\" page of the Meta-Press.es project website to present new features.": "",
  "Support": "Subteno",
  "Simon Descarpentries is working on this free / libre software since 2013.": "Simon Descarpentries laboras pri ĉi tiu senpaga / libera programaro ekde 2013.",
  "You can help him dedicating more time to this project supporting Meta-Press.es :": "Vi povas helpi lin dediĉi pli da tempo al ĉi tiu projekto subtenante Meta-Press.es :",
  "via ": "per ",
  "Patreon": "",
  "Liberapay": "",
  "Bitcoins : bc1qpkj7cu33e5y4jxjuml3e799jv6kxra729c4u03c9vyk85cz6379swqdzs3": "",
  "Ethereums : 0x89f5f205141fc8eE6540e96BF2DCec20190c584": "",
  "G1 / June : 43HQLq6RYkrQQwikFJHnHP9AbryGwrWD2ZdtYPbjNKZH\n\t\t": "",
  "This page uses ": "Ĉi tiu paĝo uzas ",
  "Artwork by ": "Artverko fare de ",
  "Meta-Press.es logo by Elisa de Castro Guerra": "Emblemo de Meta-Press.es fare de Elisa de Castro Guerra",
  "Create sources for Meta-Press.es": "Krei fontojn por Meta-Press.es",
  "📰 New sources": "📰 Novaj fontoj",
  "You can define more sources to search in, adding the corresponding instructions in the following JSON editing text area.": "Vi povas difini novajn fontojn en kiuj serĉi, aldonante la korespondajn uzindikojn en la sekvanta JSON redaktilo.",
  "Some ": "pluraj ",
  "instructions": "uzindikoj",
  " about how to define a source can be found": " pri kiel difini novan troveblan fonton",
  "(en/fr) and more examples are shown below.": " kaj ekzemploj estas listigitaj ĉi-malsupre.",
  "Line number ": "linia numero ",
  " ; column number ": " ; kolumna numero ",
  "💾  Save": "💾  Registri",
  "↶  Reset": "",
  "Reload your Meta-Press.es addon tab to take your changes into account.": "Alŝutu denove viajn tabaron Meta-Press.es por reinformpeti.",
  "Put ": "Enskribi nur ",
  "valid JSON": "validan JSON",
  " here, use only double quotes: ": " ĉi tie nur uzante duoblajn citilojn: ",
  " ; and no trailling comas: ": " ; kaj ne repetitajn komojn: ",
  "Here are the ": "Oni retrovas ĉi tie la ",
  "provided sources": "indikitajn fontojn",
  " to help you finding inspiration with examples. For instance :": " por ke oni povu sugesti el ili. Ekzemple :",
  " provides results in ": " indikas rezultojn en ",
  "extends": "etendas",
  "the ": "la ",
  " uses the HTTP ": " uzas la metodon ",
  " method;": " HTTP;",
  " uses ": " uzas selektilojn ",
  " selectors to parse HTML;": "",
  "s to parse some fields.": "por reakiri kelkajn kampojn.",
  "Added sources will remain accessible between searches and updates.": "La ĉi tie aldonitaj fontoj restos haveblaj inter du ĝisdatigoj.",
  "If you defined usefull sources, ": "Se vi difinis taŭgeblan fonton kiu povus utili al aliuloj, ",
  "please copy/paste us the corresponding JavaScript object:": "bonvolu sendi al ni la taŭgan kodon:",
  "by email at ": "per retpoŝtmesaĝo al ",
  "or via the ": "aŭ senpere ",
  "code repository": "ĉe la celdosierujo de la projekto",
  ", creating an issue or a pull request.": ", kreante kodan proponon (pull-request).",
  "You can also help me dedicating more time to this project supporting Meta-Press.es :": "Vi ankaŭ povas helpi min dediĉi pli da tempo al ĉi tiu projekto subtenante",
  ", and ": ", kaj ",
  "https://www.meta-press.es/pages/meta-press.es_documentation.html#_how_to_add_a_new_source_to_the_search_engine": "",
  "https://developer.mozilla.org/en-US/docs/Web/JavaScript/Reference/Global_Objects/JSON/parse": "",
  "Settings of Meta-Press.es": "Agordoj de Meta-Press.es",
  "⚙ Settings": "⚙ Agordoj",
  " General": " Ĝenerala",
  "Language: ": "Lingvo: ",
  "Default": "Implicita",
  "Dark background: ": "Malhela fono: ",
  "Auto": "Mem",
  "Dark": "Malhela",
  "Light": "Hela",
  "Reload search when source filters change: ": "Reŝarĝas serĉon post kiam la filtriloj de fonto ŝanĝas: ",
  "Automaticaly search in single or many words capable sources: ": "Aŭtomate serĉo en fontoj per unu aŭ pluraj vortoj",
  "🔍 Search": "🔍 Serĉo",
  "Max. results by source: ": "Maksimumaj rezultoj je fonto: ",
  "Deduplicate results (based on title): ": "Deduktaj rezultoj (surbaze de titoloj): ",
  "Load photos in results: ": "Elŝutas fotojn en rezultoj: ",
  "📢 News": "",
  "Automatically load news: ": "",
  "Reload news when source filters change: ": "Reŝarĝas novaĵoj post kiam la filtriloj de fonto ŝanĝas: ",
  "Max. loaded elements: ": "Maksimumaj eroj ŝarĝitaj: ",
  "Default page size: ": "Defaŭltaj grandoj de paĝo: ",
  "🔐 Permissions": "🔐 Permesoj",
  "To be able to read results from the sources, Meta-Press.es needs their \"host permission\".": "Por kapabli legi rezultadojn el fontoj Meta-Press bezonas iliajn \"host permission\".",
  "Request all host permissions: ": "Peti gastigantajn permesojn: ",
  "Request": "Peti",
  "Remember host permissions: ": "Memorigi gastigantajn permesojn: ",
  "Drop all host permissions: ": "Nuligi ĉiujn gastigantajn permesojn: ",
  "Drop": "Nuligi",
  "⏰ Automatic search": "⏰ Aŭtomota serĉo",
  "You can schedule searches. Set the search you want from the ": "Vi povas plani serĉojn. Planu la deziratan serĉon el la ",
  "main interface": "precipa interfaco",
  " and click its ⏰ ": " kaj alklaku ĝian ⏰ ",
  "schedule search": "Planita serĉo",
  " button.": " butonon.",
  "Timezone: ": "Horzono : ",
  "Search terms": "Serĉu termojn",
  "Last search": "Lasta serĉo",
  "Next search date": "Dato de nova serĉo",
  "Periodicity": "Periodo",
  "💾": "💾",
  "Hourly": "Hore",
  "Daily": "Tage",
  "Weekly": "Semajne",
  "Monthly": "Monate",
  "Stop": "Haltu",
  "✏️": "",
  "✖": "",
  " create source": " krei fonton",
  "Save date / time change": "Konservi daton / tempo ŝanĝas",
  "Edit": "Editi",
  "Clone": "Kloni",
  "Delete": "Forviŝi",
  "Launch": "Lanĉi",
  "icon": "",
  "Clone line": "Kloni lineo",
  "Import: ": "Importo: ",
  "A propos": "Pri",
  "Position the cursor still over elements to get more info on them.": "Loki la senmovan kursoron sur elementon por ekhavi pli da informoj pri ĝi.",
  "Settings": "Agordoj",
  "Decentralized press meta-search engine": "Malcentralizita gazetara meta-serĉilo",
  "Click on the bouton \"Load some news\" below to load real news here": "",
  "Click here to consult the official online documentation": "Alklaku ĉi tie por konsulti la oficialan retan dokumenton",
  "Enter your search terms and click on the sided button to start it": "Eniru viajn serĉajn vortojn kaj alkliku la butonon por eki ĝin",
  "Please consider a small donation to support Meta-Press.es": "Bonvolu pripensi pri malgranda donaco por mecenati Meta-Press.es",
  "Show: ": "Montri",
  "all": " ĉiujn la ",
  " news ": " novaĵoj ",
  "Load some news": "Ŝarĝi iujn novaĵoj",
  "Cancel": "Annuler",
  "Advanced search": "",
  "Type:": "Tipo",
  "Agenda": "Tagordo",
  "Database": "Datumbazo",
  "Encyclo.": "Enciklo.",
  "Illustrated": "Ilustrita",
  "Institution": "Institucio",
  "Magazine": "Revuo",
  "Peer review": "Kolega revizio",
  "Press": "Gazetaro",
  "Radio": "Radio",
  "Reference Press": "Referenca Gazetaro",
  "Scientific Press": "Scienca Gazetaro",
  "TV": "televido",
  "Language:": "Lingvo",
  "Result type:": "Speco de rezulto",
  "audio": "aŭdiaĵo",
  "photo": "fotaĵo",
  "text": "teksto",
  "video": "video",
  "Themes:": "Temoj:",
  "docu.": "dokumentaro",
  "ecology": "ekologio",
  "events": "evento",
  "financial": "financoj",
  "general": "generalo",
  "life-style": "vivmaniero",
  "media": "komunikiloj",
  "politics": "politiko",
  "science": "scienco",
  "techno.": "teknologio",
  "Technical criterion:": "teknikaj kriterioj:",
  "approx": "proksi",
  "exact": "ĝusta",
  "external search": "",
  "fast": "rapida",
  "internal search": "interna serĉo",
  "many words": "multaj vortoj",
  "never empty": "neniam malplena",
  "one word": "unu vorto",
  "slow": "malrapida",
  "Country:": "Lando",
  "Cherry-pick sources:": "Elekti la fontojn:",
  "Currently ": "Nun ",
  " selected source(s). ": " elektitat(j) fonton(j). ",
  " reset filters": " restarigo de filtriloj",
  "⏰ schedule search": "⏰ planita serĉo",
  " is ": " ankoraŭ ",
  "waiting for ": "atendas ",
  " source(s)": " fonto(j)n",
  " over ": " inter ",
  " selected, since ": " elektita(j), ekde ",
  " fetched ": " ekhavita ",
  " results for \"": " rezulto(j) por \"",
  " in ": " en ",
  "s from ": "s el ",
  " source(s) over ": " enda(j) fonto(j) ",
  " selected.": " elektita(j).",
  "Please consider a small ": "Bonvolu pripensi malgrandan ",
  "donation": "donacon",
  " to help keeping Meta-Press.es up-to-date.": " por helpi ĝisdatigon de Meta-Press.es",
  "No results.": "Neniu rezulto.",
  "Start test": "",
  "Number of results by page:": "Nombro da rezulto(j) ĉiupaĝe: ",
  "Total": "Totalo",
  "Last day": "Lasta tago",
  "Last 2 days": "Lastaj 2 tagoj",
  "Last 3 days": "Lastaj 3 tagoj",
  "Last week": "Lasta semajno",
  "Last 2 wks": "Lastaj 2 semajnoj",
  "Last month": "Lasta monato",
  "Last 2 mon.": "Lastaj du monatoj",
  "Last 6 mon.": "Lastaj 6 monatoj",
  "Last year": "Lasta jaro",
  "Last 2 yrs": "Lastaj 2 jaroj",
  "Last 5 yrs": "Lastaj 5 jaroj",
  "Last decade": "Lastaj 10 jaroj",
  "All results": "Ĉiuj rezultoj",
  "Save search as:": "Registrigi la serĉon kiel:",
  "RSS file": "formato RSS",
  "Selection mode:": "Elekta reĝimo",
  "✅ toggle": "✅ baskuli",
  "Export selection in:": "Alŝuti la selekton en :",
  "Refresh sources": "",
  "Sources: ": "Fontoj: ",
  " (loaded in ": " (elŝutitaj en ",
  "s) for ": "s) por ",
  " countries and ": " landoj kaj ",
  " languages.": " lingvoj.",
  "⇬ Back to top": "⇬ Reiro supren",
  "✍ Report feedback": "✍ Reiro al uzanto",
  "€ Support the project": "€ Reiro ĉe investo",
  " WebExtension made by ": " Reta kromprogramo fare de ",
  " with ": " kun ",
  " and ": " kaj ",
  "Meta-Press.es needs the permission to read the content of the selected sources.\nThose \"host\" permissions can be dropped or requested once and for all via the\nMeta-Press.es setting page.": "Meta-Press bezonas la permeson legi la enhavon el la elektitaj fontoj.",
  "Mobile Dev Tools": "",
  "Skip to main input": "Iru al ĉefa enigo",
  "RSS feed file": "Dosiero RSS",
  "Like this :-)": "Tiele :-)",
  "Headlines": "",
  "Search": "Serĉo",
  "Show this quantity of headlines at once": "",
  "Reload the news": "Reŝargi novaĵoj",
  "Remove the news": "",
  "Type your query here": "Tajpu vian serĉon ĉi tie",
  "Click here to start the search. You can also press the Enter key.": "Alklaki ĉi tie por ekserĉi. Oni ankaŭ povas premi la enigan klavon",
  "Click to reload the page and start a new search": "Alklaki por denove elŝuti la paĝon kaj eki novan serĉon",
  "Criterion to restrict the research to some sources only. For instance, if you want only French sources, select the 'fr' tag in the Country filter.": "Kritero por restriki la serĉo al nur iuj fontoj. Ekzemple, se vi volas nur esperantajn fontojn, elektu la 'eo' ",
  "Only sources of the selected types (press, radio, TV…) will be searched": "Nur fontoj pri elektitaj tipoj (gazetaro, radio, televidilo…) estos serĉitaj",
  "Only sources in the selected languages will be searched": "Nur fontoj pri elektitaj lingvoj estos serĉitaj",
  "Only sources producing results from those selected types will be searched": "Nur fontoj pri elektitaj tipoj de rezultoj",
  "Only sources of the selected themes will be searched": "Nur fontoj pri elektitaj temoj estas serĉotaj",
  "Only sources corresponding to all those selected criterion will be searched": "Nur fontoj pri ĉiuj elektitaj temoj estas serĉotaj",
  "Only sources from the selected contries will be searched": "Nur fontoj pri elektitaj landoj estas serĉotaj",
  "You can also select one by one in which sources to search in": "Vi ankaŭ povas selekti unu post unu tiujn fontojn",
  "Reset default selection": "Reiro al defaŭlto",
  "Schedule this search": "Planu tiun serĉon",
  "Local permalink for this search": "Ĉi tiea ĉiama ligilo por ĉi tiu serĉo",
  "Please donate today": "Bonvolu donaci hodiaŭ",
  "No result, because of a torn butterfly net ?": "Neniu rezulto… ĉu pro trua papilia reto ?",
  "Click to display all results again": "Alklaki por afiŝi denove ĉiujn rezultojn",
  "Remove results of this source": "Formeti tiujn fontajn rezultojn",
  "Link to the results in the source site": "Ligilo al la rezultoj ĉe la reteja fonto",
  "Clear filter": "Malplenigi filtrilon",
  "toggle selection mode": "baskuli elekto-reĝimon",
  "Libres Software Service Society": "Societo de Servo pri Liberaj Programaroj",
  "Adding search, sort, filters and flexibility to various existing HTML element collections.": "Aldonas serĉon, elekton, filtradon kaj flekseblecon al diversaj haveblaj kolektoj da HTML eroj.",
  "A vanilla, lightweight, configurable select box/text input plugin. Similar to Select2 and Selectize but without the jQuery dependency.": "",
  "Click to load image": "Alklaku por ŝarĝi bildon",
  "save modification": "konservas modifon",
  "New result for scheduled search": "Nova rezulto por planita serĉo",
  " new ": " nova ",
  "This choice would result in an empty selection.": "Tiu elekto donus malplenan selekton.",
  "Filter results of": "Filtri rezultojn de",
  "only": "nur",
  "Meta-Press.es butterfly net logo": "Meta-Press.es logo de papilia reto",
  "Search terms, ex.": "Eroj de serĉo, ekzemploj",
  "Filter results": "Rezultoj de filtro"
}
