{
	"ar" : "العربية",
	"de" : "Deutsch",
	"el" : "Ελληνικά",
	"en" : "English",
	"eo" : "esperanto",
	"es" : "español",
	"fa" : "فارسی",
	"fi" : "suomi",
	"fr" : "français",
	"hi" : "हिन्दी",
	"hu" : "magyar",
	"id" : "Indonesia",
	"it" : "italiano",
	"ja" : "日本語",
	"ko" : "한국어",
	"lv" : "latviešu",
	"nb" : "norsk bokmål",
	"nl" : "Nederlands",
	"pt" : "português",
	"ru" : "русский",
	"sr" : "српски",
	"sv" : "svenska",
	"tr" : "Türkçe",
	"zh" : "中文"
}
